srv.ItemData.Ability,,,,,,,,,,,,,,,,,,,,
Name,Level,Position,Cooldown type,Cooldown,Icon,Class,Mana,Req,Min Level,Use Script,Description,Range,Primary Stat,Primary Delta,Primary Stat Type,Secondary Stat,Secondary Delta,Secondary Stat Type,Notes,Special Cooldown
Double Strike,1,1,basicMelee,5000,skills.png$bounds;160;64;32;32,Brute,0,,1,"skill_double_strike(attacker, target, ability);","Cooldown: %1 Seconds
Strike the enemy twice in a row for 100% and 50% DPS",10,5000,-250,Cooldown,,,,"Need:Implement Animation (BenWa: We don?t need an animation, double swing is fine IMO)
SFX
Skill Icon",
Concussion Strike,1,2,basicStun,60000,skills.png$bounds;288;64;32;32,Brute,0,,5,"skill_concussion_strike(attacker, target, ability);","Cooldown: %1 Seconds
Stun your enemy for 10 seconds",10,60000,-2000,Cooldown,,,,"Need: Animation
SFX
Skill Icon
Add Icon for Target",
Charge,1,3,basicCharge,15000,skills.png$bounds;192;128;32;32,Brute,0,,50,"skill_charge(attacker, target, ability);","Cooldown: 10 Seconds
Charge up to 15 tiles forward
dealing %1% DPS and causing
%2% DPS DoT for 2 Seconds",15,100,5,charge_dps,40,5,charge_dot,Image Need,
Extreme Training,1,4,passive,0,skills.png$bounds;256;64;32;32,Brute,0,,3,,"Passive
Allows the Brute to wear a second piece of armor for %1% of the
Armor value. Slows down movement speed by %2%.",0,60,4,second armor efficiency,10,-1,extreme_movement,Done,
Throw Weapon,2,1,basicSpecial,30000,skills.png$bounds;416;64;32;32,Brute,0,,14,"skill_throw_weapon(attacker, target, ability);","Cooldown: 30 Seconds
Throw your melee weapon at your 
target, causing %1% DPS and a DoT
for %2% dps over 5 seconds. You are
unable to attack until you retrieve
your weapon",15,110,10,throw_dps,100,5,throw_dot,Done,
Shield Bash,2,2,basicThreat,10000,skills.png$bounds;160;128;32;32,Brute,0,,18,"skill_shieldbash(attacker, target, ability);","Cooldown: 10 Seconds
Use your shield to attack your
target for %1% of Off Hand Armor as DPS.
Causes increased threat and applies
a %2% armor reduction on target. 
Can be applied 3x per target.",10,20,5,shieldBash_dps,1,1,shieldBash_armor,Sounds Needed / Overlay,
Cleave,2,3,basicAoe,60000,skills.png$bounds;224;128;32;32,Brute,0,,22,"skill_cleave(attacker, target, ability);","Cooldown: %2 Seconds
Damage multiple enemies in front
of you for %1% DPS. You gain a shield 
absorbing total damage dealt.
",10,50,5,cleave_dps,60000,-2000,Cooldown,"Need: Animation
SFX
",
Primal Rage,2,4,passive,0,skills.png$bounds;256;32;32;32,Brute,0,,12,"skill_primalRage(attacker, target, ability);","Passive
DPS:
Increase your HP by %1% and 
your Crit by %2%
Tank: 
Increase your HP by %1% and 
your Threat by %2%",0,2,2,primalRage_hp,2,2,primalRage_threat_crit,Done,
Bloodlust,3,1,special,900000,skills.png$bounds;64;32;32;32,Brute,0,,26,"skill_bloodlust(attacker, target, ability);","Cooldown: 15 Minutes
Increase Critical Strike chance by
%1% every 60 Seconds (Stacking
up to 10 times) resets after you 
deal a critical strike",0,5,5,bloodlust_crit,,,,"GFX
Balance
SFX",
Pillage,3,4,passive,0,skills.png$bounds;384;64;32;32,Brute,0,,20,,"Passive
When you or a party member on the same
map kills an enemy you re-use partsof their 
armor to temporarily increase your parties
armor by %1% for 20 seconds",0,10,5,pillage_armor_bonus,,,,Done,
,,,,,,,,,,,,,,,,,,,,
srv.ItemData.Ability,,,,,,,,,,,,,,,,,,,,
Name,Level,Position,Cooldown type,Cooldown,Icon,Class,Mana,Req,Min Level,Use Script,Description,Range,Primary Stat,Primary Delta,Primary Stat Type,Secondary Stat,Secondary Delta,Secondary Stat Type,Notes,Special Cooldown
Chemical Waste,1,1,basicDoT,10000,skills.png$bounds;352;0;32;32,Medic,0,,1,"skill_chemical_waste(attacker, target, ability);","Cooldown: 10 Seconds
Damage : 175% Weapon Damage
Has a %1% chance to cause a %2 DoT
which spreads to nearby targets",10,20,4,chemical_wasteChance,10,10,chemical_waste_dot,"Need: Implament Gooze Puddles
SFX",
Heal Tonic,1,2,basicHeal,6000,skills.png$bounds;96;32;32;32,Medic,0,,5,"skill_heal_tonic(attacker, target, ability);","Cooldown: %1 Seconds
Heals your target for 15% of
your current health",30,5000,-250,Cooldown,,,,Need: ,
Barrier,1,3,basicSpell,60000,skills.png$bounds;192;0;32;32,Medic,0,,10,"skill_barrier(attacker, target, ability);","Cooldown: 60 Seconds
Casts a Barrier on your target or self for 10 Seconds.
While active it will absorb %1% Damage and reflect 
%2% of damage back to the attacker",15,5,2,barrier_absorb,10,2,barrier_reflect,"Need: Icon
Script
SFX
Animation",
Adrenaline,1,4,longCooldown,3600000,skills.png$bounds;128;0;32;32,Medic,0,,3,"skill_adrenaline(attacker, target, ability);","After you critically heal %1 times
you can target yourself or an ally 
to refresh their cooldowns immediately",30,50,-2,adrenaline_casts,,,,Need: Animation SFX,TRUE
Jump Start,2,1,revive,60000,skills.png$bounds;256;96;32;32,Medic,0,,14,"skill_jumpstart(attacker, target, ability);","Jump Start
Cooldown : 60 Seconds
You bring your target back to life, and heal them for
%1 damage after they are brought back to life
(Can't be used in Combat)",10,10,10,jumpstartHeal,,,,"Need: Animation
SFX",
Re-Animate,2,2,reviveCombo,300000,skills.png$bounds;288;96;32;32,Medic,0,,18,"skill_reanimate(attacker, target, ability)","Cooldown: 5 Minutes
Cast near a fallen monster to revive
and have the monster fight by your 
side for %1 seconds",0,60,10,reanim_time,,,,Not scripted,
Rest,2,3,basicBuff,120000,skills.png$bounds;224;96;32;32,Medic,0,,22,"skill_rest(attacker, target, ability);","Cooldown: 120 Seconds
Usable out of combat to quickly replenish your parties
health for %1% of your life per second. Also reduces
your cool downs by %2 second(s) per second.",0,4,4,rest_healing,500,500,rest_cooldown,"Need: Script Finished
SFX
Icon
Animation",
Critical Heals,2,4,passive,0,skills.png$bounds;224;0;32;32,Medic,0,,12,"skill_criticalHeals(attacker, target, ability);","Passive
Your heals have a %1% chance to Criticaly Heal. 
Also when they do crit they will apply a HoT for
%2 of heal over 6 Seconds",0,5,2,heals_crit,20,10,heals_hot,Not scripted,
Group Tonic,3,1,advancedHeal,200000,skills.png$bounds;128;32;32;32,Medic,0,,26,"skill_group_tonic(attacker, target, ability);","Cooldown: 60 Seconds
Heal all targets within %1 Tiles
for %1% Health each 3 Seconds for
15 Seconds. This is a Chanelled ability 
so you can not move",0,5,2,groupTonic_size,20,5,groupTonic_heal,"Script Finished
SFX
Buff icon",
Concentration,3,2,advancedDoT,20000,skills.png$bounds;480;160;32;32,Medic,0,,50,"skill_terminal_diagnosis(attacker, target, ability);","Cooldown: 20 Seconds
Apply a DoT on your target
dealing %1 DPS over 30 Seconds.
Damage slowly increases as more
time passes.",30,400,10,terminal_dps,,,,,
Steroids,3,4,passive,0,skills.png$bounds;192;96;32;32,Medic,0,,20,,"Passive
Whenever you heal a target you have a %1% chance of
increasing their dodge by %2% for 15 Seconds",0,5,1,steroids_buff,5,2,steroids_dodge,Not scripted,
,,,,,,,,,,,,,,,,,,,,
,,,,,,,,,,,,,,,,,,,,
srv.ItemData.Ability,,,,,,,,,,,,,,,,,,,,
Name,Level,Position,Cooldown Type,Cooldown,Icon,Class,Mana,Req,Min Level,Use Script,Description,Range,Primary Stat,Primary Delta,Primary Stat Type,Secondary Stat,Secondary Delta,Secondary Stat Type,Notes,Special Cooldown
Backstab,1,1,basicMelee,4000,skills.png$bounds;64;0;32;32,Assassin,0,,1,"skill_backstab(attacker, target, ability);","Cooldown: 5 Seconds
Damage: 120% Weapon Damage
Attacks your target for 120% damage. 
If hidden does an additional %1% damage",4,200,10,backstab_critical,,,,"SFX
Implement backStab animation",
Stealth,1,2,basicStealth,60000,skills.png$bounds;384;0;32;32,Assassin,0,,5,"skill_stealth(attacker, target, ability);","Cooldown: %1 Seconds
Good for sneaking up on enemies and do 
%2% more damage for your first attack 
(Can't be used in combat)",0,60000,-2000,Cooldown,20,2,dmgshadow,"SFX
Use same animation as smoke screen?",
Dagger Rain,1,3,basicAoe,300000,skills.png$bounds;96;96;32;32,Assassin,0,,10,"skill_dagger_rain(attacker, target, ability);","Cooldown: 5 Minutes
Attack with 4 volleys of daggers
Each dealing %1% DPS AoE Damage",10,100,5,daggerDamage,,,,Not scripted,
Poison Tips,1,4,passive,0,skills.png$bounds;64;96;32;32,Assassin,0,,3,"skill_poison_tips(attacker, target, ability);","Passive
Chance your attacks are able to apply
Poision DoT for %1% Damage",0,10,2,poison_damage,,,,Implement poisonTips animation,
Grappling Hook,2,1,basicStun,20000,skills.png$bounds;128;64;32;32,Assassin,0,,14,"skill_grappling_hook(attacker, target, ability);","Cooldown: 20 Seconds
Damage: 110% Weapon Damage
Range: %1
Throw a hook at your target causing 110% DPS
also stunning for %2 seconds and pulling the 
target to you.",20,20,2,Range,2,1,grap_stun,"SFX
Implament projectile with the grapling hook animation",
Dual Wield,2,2,passive,2000,skills.png$bounds;96;0;32;32,Assassin,0,,18,,"Passive
Gives you the ability to equip
2x 1 Hand Weapons with the Off
Hand dealing%1% Damage",0,30,2,offhand_penalty,,,,"Not scripted
Implement daggerRain animation",
Smoke Screen,2,3,basicDpsBoost,90000,skills.png$bounds;0;96;32;32,Assassin,0,,22,"skill_smoke_screen(attacker, target, ability);","Cooldown: %1 Seconds
You throw a smoke bomb at your target or
self causing you to stealth and lose aggro",21,60000,-2000,Cooldown,,,,SFX,
Critical Strikes,2,4,passive,0,skills.png$bounds;32;96;32;32,Assassin,0,,12,"skill_criticalStrikes(attacker, target, ability);","Passive
Increase your chance to deal a Critical Strike
By %1%",0,1.5,1.5,critical,,,,Not scripted,
Finisher,3,1,advancedDamage,3600000,skills.png$bounds;128;96;32;32,Assassin,0,,34,"skill_finisher(attacker, target, ability);","Cooldown: 60 Seconds
After you land critical strike
%1 times, you can instantly
kill a target below 30% (Does
not work on bosses)",30,50,-2,finisher_crits,,,,Done,TRUE
Disarm Trap,3,2,passive,0,skills.png$bounds;0;64;32;32,Assassin,0,,26,"skill_disarmTrap(attacker, target, ability);","Passive
You have a %1% Chance to disable
traps when you are near them
",0,10,10,disarm_chance,,,,WIP,
Flash Step,3,3,basicDef,30000,skills.png$bounds;448;64;32;32,Assassin,0,,45,"skill_flashStep(attacker, target, ability);","Cooldown: %1 Seconds
Increases Dodge and Run
Speed by %2% for 10 Seconds",0,30000,-2000,Cooldown,5,5,flash_evasive,Need PFX,
Quick Reflexes,3,4,passive,0,skills.png$bounds;0;64;32;32,Assassin,0,,20,"skill_quick_reflexes(attacker, target, ability);","Passive
Your quick reflexes have a %1% chance to reset all cool downs",0,0.5,0.5,reflex_chance,,,,Done,
,,,,,,,,,,,,,,,,,,,,
srv.ItemData.Ability,,,,,,,,,,,,,,,,,,,,
Name,Level,Position,Cooldown Type,Cooldown,Icon,Class,Mana,Req,Min Level,Use Script,Description,Range,Primary Stat,Primary Delta,Primary Stat Type,Secondary Stat,Secondary Delta,Secondary Stat Type,Notes,
Flame Potion,1,1,generic,10000,skills.png$bounds;448;32;32;32,Alchemy,10,,10,"flame_potion_use(attacker, target, ability);","Flame Potion
Cooldown : 10 Seconds
Damage enemy with fire, any nearby
Targets will catch on fire as well",15,,,,,,,,
Summon Slime,1,2,generic,15000,skills.png$bounds;64;64;32;32,Alchemy,10,,10,"summon_blob_use(attacker, target, ability);","Summon Slime
Cooldown : 15 Seconds
Summon a Blob Companion",,,,,,,,,
Ignite,2,1,generic,30000,skills.png$bounds;96;64;32;32,Alchemy,10,Flame Potion,10,"ignite_use(attacker, target, ability);","Ignite
Cooldown : 30 Seconds
Ignite any targets that are burning
Causing splash damage to nearby targets",10,,,,,,,,
Clone,1,3,generic,60000,skills.png$bounds;384;64;32;32,Alchemy,10,,10,"clone_use(attacker, target, ability);","Clone
Cooldown : 60 Seconds
Cast the clone ability effect determined by Reagent Type",,,,,,,,,
Slime Mastery,2,2,generic,120000,skills.png$bounds;384;64;32;32,Alchemy,10,Summon Slime,10,"blob_mastery_use(attacker, target, ability);","Slime Mastery
Cooldown : 2 Minutes
Have your blob perform a special ability determined by Reagent Type",,,,,,,,,
,,,,,,,,,,,,,,,,,,,,
,,,,,,,,,,,,,,,,,,,,
,,,,,,,,,,,,,,,,,,,,
,,,,,,,,,,,,,,,,,,,,
srv.ItemData.Ability,,,,,,,,,,,,,,,,,,,,
Name,Level,Position,Cooldown Type,Cooldown,Icon,Class,Mana,Req,Min Level,Use Script,Description,,,,,,,,,
Self Heal,1,1,melee,60000,,Monster,0,,1,"monster_skill_heal(attacker, target, ability, true, false);",,,,,,,,,,
Other Heal,1,1,melee,60000,,Monster,0,,1,"monster_skill_heal(attacker, target, ability, false, true);",,,,,,,,,,
Any Heal,1,1,melee,60000,,Monster,0,,1,"monster_skill_heal(attacker, target, ability, true, true);",,,,,,,,,,
Call For Help,1,1,melee,90000,,Monster,0,,1,"monster_skill_callforhelp(attacker, target, ability);",,,,,,,,,,
armor up,1,1,melee,30000,,Monster,0,,1,"monster_skill_armor_up(attacker, target, ability);",,,,,,,,,,
dodge up,1,1,melee,30000,,Monster,0,,1,"monster_skill_armor_up(attacker, target, ability);",,,,,,,,,,
